…
This code chunk imports the `tidyverse`, creates a data frame, and makes
a histogram.

``` r
set.seed(1234)

plot_df <- 
      tibble(
            x = rnorm(1000, sd = .5),
            y = 1 + 2 * x + rnorm(1000)
      )
plot_df
```

    ## # A tibble: 1,000 × 2
    ##         x      y
    ##     <dbl>  <dbl>
    ##  1 -0.604 -1.41 
    ##  2  0.139  1.58 
    ##  3  0.542  0.545
    ##  4 -1.17  -0.710
    ##  5  0.215  2.13 
    ##  6  0.253 -0.400
    ##  7 -0.287  1.36 
    ##  8 -0.273  0.229
    ##  9 -0.282 -0.238
    ## 10 -0.445  0.556
    ## # … with 990 more rows
…
